-- Merging decision tree log ---
manifest
ADDED from /home/str/home-main-repository.git/androidrepository/ApplicationDataProviders/app/src/main/AndroidManifest.xml:2:1-25:12
	package
		ADDED from /home/str/home-main-repository.git/androidrepository/ApplicationDataProviders/app/src/main/AndroidManifest.xml:3:5-43
		INJECTED from /home/str/home-main-repository.git/androidrepository/ApplicationDataProviders/app/src/main/AndroidManifest.xml
		INJECTED from /home/str/home-main-repository.git/androidrepository/ApplicationDataProviders/app/src/main/AndroidManifest.xml
	android:versionName
		INJECTED from /home/str/home-main-repository.git/androidrepository/ApplicationDataProviders/app/src/main/AndroidManifest.xml
		INJECTED from /home/str/home-main-repository.git/androidrepository/ApplicationDataProviders/app/src/main/AndroidManifest.xml
	xmlns:android
		ADDED from /home/str/home-main-repository.git/androidrepository/ApplicationDataProviders/app/src/main/AndroidManifest.xml:2:11-69
	android:versionCode
		INJECTED from /home/str/home-main-repository.git/androidrepository/ApplicationDataProviders/app/src/main/AndroidManifest.xml
		INJECTED from /home/str/home-main-repository.git/androidrepository/ApplicationDataProviders/app/src/main/AndroidManifest.xml
uses-permission#android.permission.WRITE_EXTERNAL_STORAGE
ADDED from /home/str/home-main-repository.git/androidrepository/ApplicationDataProviders/app/src/main/AndroidManifest.xml:5:5-97
	android:name
		ADDED from /home/str/home-main-repository.git/androidrepository/ApplicationDataProviders/app/src/main/AndroidManifest.xml:5:22-78
application
ADDED from /home/str/home-main-repository.git/androidrepository/ApplicationDataProviders/app/src/main/AndroidManifest.xml:7:5-23:19
MERGED from [com.android.support:appcompat-v7:25.1.1] /home/str/.android/build-cache/864581395333ec611799c6ec78b3505915971163/output/AndroidManifest.xml:25:5-20
MERGED from [com.android.support:support-v4:25.1.1] /home/str/.android/build-cache/094cd725d6b4988f5062436dd65d5d2453b62845/output/AndroidManifest.xml:25:5-20
MERGED from [com.android.support:support-fragment:25.1.1] /home/str/.android/build-cache/bd1c8ddb7da3815a99d6411927d47b9ac4273038/output/AndroidManifest.xml:25:5-20
MERGED from [com.android.support:support-media-compat:25.1.1] /home/str/.android/build-cache/43422a967af195c7e492819e3c10a44dc2cc84ec/output/AndroidManifest.xml:25:5-20
MERGED from [com.android.support:support-core-ui:25.1.1] /home/str/.android/build-cache/3f81f6e00c174e3ad8259c43c2dfb7b78f6e5275/output/AndroidManifest.xml:25:5-20
MERGED from [com.android.support:support-core-utils:25.1.1] /home/str/.android/build-cache/5cac57cb0b2fa746456882a9c8d7e1906c0a3e22/output/AndroidManifest.xml:25:5-20
MERGED from [com.android.support:animated-vector-drawable:25.1.1] /home/str/.android/build-cache/c8c8e8c00fde2266bb4e8c30f5477f5893400fbb/output/AndroidManifest.xml:22:5-20
MERGED from [com.android.support:support-vector-drawable:25.1.1] /home/str/.android/build-cache/efe7a7118ff498fd668e3a6442f10d606c703f37/output/AndroidManifest.xml:23:5-20
MERGED from [com.android.support.constraint:constraint-layout:1.0.2] /home/str/.android/build-cache/dd7960ce9c1bed5cd6d662caf29d8b6d54cbbcf1/output/AndroidManifest.xml:9:5-20
MERGED from [com.android.support:support-compat:25.1.1] /home/str/.android/build-cache/3e11e82b7b27505ad8bdac574821c62b7ab7081e/output/AndroidManifest.xml:25:5-20
	android:label
		ADDED from /home/str/home-main-repository.git/androidrepository/ApplicationDataProviders/app/src/main/AndroidManifest.xml:10:9-41
	android:supportsRtl
		ADDED from /home/str/home-main-repository.git/androidrepository/ApplicationDataProviders/app/src/main/AndroidManifest.xml:12:9-35
	android:roundIcon
		ADDED from /home/str/home-main-repository.git/androidrepository/ApplicationDataProviders/app/src/main/AndroidManifest.xml:11:9-54
	android:allowBackup
		ADDED from /home/str/home-main-repository.git/androidrepository/ApplicationDataProviders/app/src/main/AndroidManifest.xml:8:9-35
	android:icon
		ADDED from /home/str/home-main-repository.git/androidrepository/ApplicationDataProviders/app/src/main/AndroidManifest.xml:9:9-43
	android:theme
		ADDED from /home/str/home-main-repository.git/androidrepository/ApplicationDataProviders/app/src/main/AndroidManifest.xml:13:9-40
activity#sda3.amen.com.moviesdatabase.MainActivity
ADDED from /home/str/home-main-repository.git/androidrepository/ApplicationDataProviders/app/src/main/AndroidManifest.xml:14:9-20:20
	android:name
		ADDED from /home/str/home-main-repository.git/androidrepository/ApplicationDataProviders/app/src/main/AndroidManifest.xml:14:19-47
intent-filter#android.intent.action.MAIN+android.intent.category.LAUNCHER
ADDED from /home/str/home-main-repository.git/androidrepository/ApplicationDataProviders/app/src/main/AndroidManifest.xml:15:13-19:29
action#android.intent.action.MAIN
ADDED from /home/str/home-main-repository.git/androidrepository/ApplicationDataProviders/app/src/main/AndroidManifest.xml:16:17-69
	android:name
		ADDED from /home/str/home-main-repository.git/androidrepository/ApplicationDataProviders/app/src/main/AndroidManifest.xml:16:25-66
category#android.intent.category.LAUNCHER
ADDED from /home/str/home-main-repository.git/androidrepository/ApplicationDataProviders/app/src/main/AndroidManifest.xml:18:17-77
	android:name
		ADDED from /home/str/home-main-repository.git/androidrepository/ApplicationDataProviders/app/src/main/AndroidManifest.xml:18:27-74
activity#sda3.amen.com.moviesdatabase.AddMovieActivity
ADDED from /home/str/home-main-repository.git/androidrepository/ApplicationDataProviders/app/src/main/AndroidManifest.xml:21:9-54
	android:name
		ADDED from /home/str/home-main-repository.git/androidrepository/ApplicationDataProviders/app/src/main/AndroidManifest.xml:21:19-51
activity#sda3.amen.com.moviesdatabase.ViewMoviesActivity
ADDED from /home/str/home-main-repository.git/androidrepository/ApplicationDataProviders/app/src/main/AndroidManifest.xml:22:9-65
	android:name
		ADDED from /home/str/home-main-repository.git/androidrepository/ApplicationDataProviders/app/src/main/AndroidManifest.xml:22:19-53
uses-sdk
INJECTED from /home/str/home-main-repository.git/androidrepository/ApplicationDataProviders/app/src/main/AndroidManifest.xml reason: use-sdk injection requested
MERGED from [com.android.support:appcompat-v7:25.1.1] /home/str/.android/build-cache/864581395333ec611799c6ec78b3505915971163/output/AndroidManifest.xml:21:5-23:78
MERGED from [com.android.support:support-v4:25.1.1] /home/str/.android/build-cache/094cd725d6b4988f5062436dd65d5d2453b62845/output/AndroidManifest.xml:21:5-23:54
MERGED from [com.android.support:support-fragment:25.1.1] /home/str/.android/build-cache/bd1c8ddb7da3815a99d6411927d47b9ac4273038/output/AndroidManifest.xml:21:5-23:60
MERGED from [com.android.support:support-media-compat:25.1.1] /home/str/.android/build-cache/43422a967af195c7e492819e3c10a44dc2cc84ec/output/AndroidManifest.xml:21:5-23:63
MERGED from [com.android.support:support-core-ui:25.1.1] /home/str/.android/build-cache/3f81f6e00c174e3ad8259c43c2dfb7b78f6e5275/output/AndroidManifest.xml:21:5-23:58
MERGED from [com.android.support:support-core-utils:25.1.1] /home/str/.android/build-cache/5cac57cb0b2fa746456882a9c8d7e1906c0a3e22/output/AndroidManifest.xml:21:5-23:61
MERGED from [com.android.support:animated-vector-drawable:25.1.1] /home/str/.android/build-cache/c8c8e8c00fde2266bb4e8c30f5477f5893400fbb/output/AndroidManifest.xml:20:5-44
MERGED from [com.android.support:support-vector-drawable:25.1.1] /home/str/.android/build-cache/efe7a7118ff498fd668e3a6442f10d606c703f37/output/AndroidManifest.xml:21:5-43
MERGED from [com.android.support.constraint:constraint-layout:1.0.2] /home/str/.android/build-cache/dd7960ce9c1bed5cd6d662caf29d8b6d54cbbcf1/output/AndroidManifest.xml:5:5-7:41
MERGED from [com.jakewharton:butterknife:8.6.0] /home/str/.android/build-cache/56725c8207c3897dda2ec33f270728dfde6fda98/output/AndroidManifest.xml:5:5-43
MERGED from [com.android.support:support-compat:25.1.1] /home/str/.android/build-cache/3e11e82b7b27505ad8bdac574821c62b7ab7081e/output/AndroidManifest.xml:21:5-23:58
	tools:overrideLibrary
		ADDED from [com.android.support:appcompat-v7:25.1.1] /home/str/.android/build-cache/864581395333ec611799c6ec78b3505915971163/output/AndroidManifest.xml:23:9-75
	android:targetSdkVersion
		INJECTED from /home/str/home-main-repository.git/androidrepository/ApplicationDataProviders/app/src/main/AndroidManifest.xml
		INJECTED from /home/str/home-main-repository.git/androidrepository/ApplicationDataProviders/app/src/main/AndroidManifest.xml
	android:minSdkVersion
		INJECTED from /home/str/home-main-repository.git/androidrepository/ApplicationDataProviders/app/src/main/AndroidManifest.xml
		INJECTED from /home/str/home-main-repository.git/androidrepository/ApplicationDataProviders/app/src/main/AndroidManifest.xml
