-- Merging decision tree log ---
manifest
ADDED from /home/str/home-main-repository.git/androidrepository/Accelerometer/app/src/main/AndroidManifest.xml:2:1-21:12
	package
		ADDED from /home/str/home-main-repository.git/androidrepository/Accelerometer/app/src/main/AndroidManifest.xml:3:5-44
		INJECTED from /home/str/home-main-repository.git/androidrepository/Accelerometer/app/src/main/AndroidManifest.xml
		INJECTED from /home/str/home-main-repository.git/androidrepository/Accelerometer/app/src/main/AndroidManifest.xml
	android:versionName
		INJECTED from /home/str/home-main-repository.git/androidrepository/Accelerometer/app/src/main/AndroidManifest.xml
		INJECTED from /home/str/home-main-repository.git/androidrepository/Accelerometer/app/src/main/AndroidManifest.xml
	xmlns:android
		ADDED from /home/str/home-main-repository.git/androidrepository/Accelerometer/app/src/main/AndroidManifest.xml:2:11-69
	android:versionCode
		INJECTED from /home/str/home-main-repository.git/androidrepository/Accelerometer/app/src/main/AndroidManifest.xml
		INJECTED from /home/str/home-main-repository.git/androidrepository/Accelerometer/app/src/main/AndroidManifest.xml
application
ADDED from /home/str/home-main-repository.git/androidrepository/Accelerometer/app/src/main/AndroidManifest.xml:5:5-19:19
MERGED from [com.android.support:appcompat-v7:25.3.1] /home/str/.android/build-cache/b423cf310aa45261234d985165a8a955d611d200/output/AndroidManifest.xml:29:5-20
MERGED from [com.android.support:support-v4:25.3.1] /home/str/.android/build-cache/2963b010b2002f947cb9f6104ae9d57eb8e3ca93/output/AndroidManifest.xml:29:5-20
MERGED from [com.android.support:support-fragment:25.3.1] /home/str/.android/build-cache/276a8b68b986bf51ed59835390837327186015be/output/AndroidManifest.xml:29:5-20
MERGED from [com.android.support:support-media-compat:25.3.1] /home/str/.android/build-cache/70e233bc2be3eec455c25ccaa814534431ae3b80/output/AndroidManifest.xml:29:5-20
MERGED from [com.android.support:support-core-ui:25.3.1] /home/str/.android/build-cache/10a9085c7db2920ae92b222692f8cf898f80f035/output/AndroidManifest.xml:29:5-20
MERGED from [com.android.support:support-core-utils:25.3.1] /home/str/.android/build-cache/742ab15b5c17bef15e5270a6e339ae7b91e97c5c/output/AndroidManifest.xml:29:5-20
MERGED from [com.android.support:animated-vector-drawable:25.3.1] /home/str/.android/build-cache/44e0e0300c65fbdecc3e1fdde9cb676030933e88/output/AndroidManifest.xml:26:5-20
MERGED from [com.android.support:support-vector-drawable:25.3.1] /home/str/.android/build-cache/847a9aa2388ef8129f5b82aea80082f1913343d6/output/AndroidManifest.xml:26:5-20
MERGED from [com.android.support:support-compat:25.3.1] /home/str/.android/build-cache/74e4532f80198e4dc217fc0203a9abe5b9d8d584/output/AndroidManifest.xml:29:5-20
MERGED from [com.android.support.constraint:constraint-layout:1.0.2] /home/str/.android/build-cache/dd7960ce9c1bed5cd6d662caf29d8b6d54cbbcf1/output/AndroidManifest.xml:9:5-20
	android:label
		ADDED from /home/str/home-main-repository.git/androidrepository/Accelerometer/app/src/main/AndroidManifest.xml:8:9-41
	android:supportsRtl
		ADDED from /home/str/home-main-repository.git/androidrepository/Accelerometer/app/src/main/AndroidManifest.xml:10:9-35
	android:roundIcon
		ADDED from /home/str/home-main-repository.git/androidrepository/Accelerometer/app/src/main/AndroidManifest.xml:9:9-54
	android:allowBackup
		ADDED from /home/str/home-main-repository.git/androidrepository/Accelerometer/app/src/main/AndroidManifest.xml:6:9-35
	android:icon
		ADDED from /home/str/home-main-repository.git/androidrepository/Accelerometer/app/src/main/AndroidManifest.xml:7:9-43
	android:theme
		ADDED from /home/str/home-main-repository.git/androidrepository/Accelerometer/app/src/main/AndroidManifest.xml:11:9-40
activity#com.example.str.accelerometer.MainActivity
ADDED from /home/str/home-main-repository.git/androidrepository/Accelerometer/app/src/main/AndroidManifest.xml:12:9-18:20
	android:name
		ADDED from /home/str/home-main-repository.git/androidrepository/Accelerometer/app/src/main/AndroidManifest.xml:12:19-47
intent-filter#android.intent.action.MAIN+android.intent.category.LAUNCHER
ADDED from /home/str/home-main-repository.git/androidrepository/Accelerometer/app/src/main/AndroidManifest.xml:13:13-17:29
action#android.intent.action.MAIN
ADDED from /home/str/home-main-repository.git/androidrepository/Accelerometer/app/src/main/AndroidManifest.xml:14:17-69
	android:name
		ADDED from /home/str/home-main-repository.git/androidrepository/Accelerometer/app/src/main/AndroidManifest.xml:14:25-66
category#android.intent.category.LAUNCHER
ADDED from /home/str/home-main-repository.git/androidrepository/Accelerometer/app/src/main/AndroidManifest.xml:16:17-77
	android:name
		ADDED from /home/str/home-main-repository.git/androidrepository/Accelerometer/app/src/main/AndroidManifest.xml:16:27-74
uses-sdk
INJECTED from /home/str/home-main-repository.git/androidrepository/Accelerometer/app/src/main/AndroidManifest.xml reason: use-sdk injection requested
MERGED from [com.android.support:appcompat-v7:25.3.1] /home/str/.android/build-cache/b423cf310aa45261234d985165a8a955d611d200/output/AndroidManifest.xml:21:5-23:78
MERGED from [com.android.support:support-v4:25.3.1] /home/str/.android/build-cache/2963b010b2002f947cb9f6104ae9d57eb8e3ca93/output/AndroidManifest.xml:21:5-23:54
MERGED from [com.android.support:support-fragment:25.3.1] /home/str/.android/build-cache/276a8b68b986bf51ed59835390837327186015be/output/AndroidManifest.xml:21:5-23:60
MERGED from [com.android.support:support-media-compat:25.3.1] /home/str/.android/build-cache/70e233bc2be3eec455c25ccaa814534431ae3b80/output/AndroidManifest.xml:21:5-23:63
MERGED from [com.android.support:support-core-ui:25.3.1] /home/str/.android/build-cache/10a9085c7db2920ae92b222692f8cf898f80f035/output/AndroidManifest.xml:21:5-23:58
MERGED from [com.android.support:support-core-utils:25.3.1] /home/str/.android/build-cache/742ab15b5c17bef15e5270a6e339ae7b91e97c5c/output/AndroidManifest.xml:21:5-23:61
MERGED from [com.android.support:animated-vector-drawable:25.3.1] /home/str/.android/build-cache/44e0e0300c65fbdecc3e1fdde9cb676030933e88/output/AndroidManifest.xml:20:5-44
MERGED from [com.android.support:support-vector-drawable:25.3.1] /home/str/.android/build-cache/847a9aa2388ef8129f5b82aea80082f1913343d6/output/AndroidManifest.xml:20:5-43
MERGED from [com.android.support:support-compat:25.3.1] /home/str/.android/build-cache/74e4532f80198e4dc217fc0203a9abe5b9d8d584/output/AndroidManifest.xml:21:5-23:58
MERGED from [com.android.support.constraint:constraint-layout:1.0.2] /home/str/.android/build-cache/dd7960ce9c1bed5cd6d662caf29d8b6d54cbbcf1/output/AndroidManifest.xml:5:5-7:41
	tools:overrideLibrary
		ADDED from [com.android.support:appcompat-v7:25.3.1] /home/str/.android/build-cache/b423cf310aa45261234d985165a8a955d611d200/output/AndroidManifest.xml:23:9-75
	android:targetSdkVersion
		INJECTED from /home/str/home-main-repository.git/androidrepository/Accelerometer/app/src/main/AndroidManifest.xml
		INJECTED from /home/str/home-main-repository.git/androidrepository/Accelerometer/app/src/main/AndroidManifest.xml
	android:minSdkVersion
		INJECTED from /home/str/home-main-repository.git/androidrepository/Accelerometer/app/src/main/AndroidManifest.xml
		INJECTED from /home/str/home-main-repository.git/androidrepository/Accelerometer/app/src/main/AndroidManifest.xml
meta-data#android.support.VERSION
ADDED from [com.android.support:appcompat-v7:25.3.1] /home/str/.android/build-cache/b423cf310aa45261234d985165a8a955d611d200/output/AndroidManifest.xml:25:5-27:34
MERGED from [com.android.support:support-v4:25.3.1] /home/str/.android/build-cache/2963b010b2002f947cb9f6104ae9d57eb8e3ca93/output/AndroidManifest.xml:25:5-27:34
MERGED from [com.android.support:support-fragment:25.3.1] /home/str/.android/build-cache/276a8b68b986bf51ed59835390837327186015be/output/AndroidManifest.xml:25:5-27:34
MERGED from [com.android.support:support-media-compat:25.3.1] /home/str/.android/build-cache/70e233bc2be3eec455c25ccaa814534431ae3b80/output/AndroidManifest.xml:25:5-27:34
MERGED from [com.android.support:support-core-ui:25.3.1] /home/str/.android/build-cache/10a9085c7db2920ae92b222692f8cf898f80f035/output/AndroidManifest.xml:25:5-27:34
MERGED from [com.android.support:support-core-utils:25.3.1] /home/str/.android/build-cache/742ab15b5c17bef15e5270a6e339ae7b91e97c5c/output/AndroidManifest.xml:25:5-27:34
MERGED from [com.android.support:animated-vector-drawable:25.3.1] /home/str/.android/build-cache/44e0e0300c65fbdecc3e1fdde9cb676030933e88/output/AndroidManifest.xml:22:5-24:34
MERGED from [com.android.support:support-vector-drawable:25.3.1] /home/str/.android/build-cache/847a9aa2388ef8129f5b82aea80082f1913343d6/output/AndroidManifest.xml:22:5-24:34
MERGED from [com.android.support:support-compat:25.3.1] /home/str/.android/build-cache/74e4532f80198e4dc217fc0203a9abe5b9d8d584/output/AndroidManifest.xml:25:5-27:34
	android:value
		ADDED from [com.android.support:appcompat-v7:25.3.1] /home/str/.android/build-cache/b423cf310aa45261234d985165a8a955d611d200/output/AndroidManifest.xml:27:9-31
	android:name
		ADDED from [com.android.support:appcompat-v7:25.3.1] /home/str/.android/build-cache/b423cf310aa45261234d985165a8a955d611d200/output/AndroidManifest.xml:26:9-47
