-- Merging decision tree log ---
manifest
ADDED from /home/str/home-main-repository.git/androidrepository/FragmentsExperimentsDuelPane/app/src/main/AndroidManifest.xml:2:1-22:12
	package
		ADDED from /home/str/home-main-repository.git/androidrepository/FragmentsExperimentsDuelPane/app/src/main/AndroidManifest.xml:3:5-63
		INJECTED from /home/str/home-main-repository.git/androidrepository/FragmentsExperimentsDuelPane/app/src/main/AndroidManifest.xml
		INJECTED from /home/str/home-main-repository.git/androidrepository/FragmentsExperimentsDuelPane/app/src/main/AndroidManifest.xml
	android:versionName
		INJECTED from /home/str/home-main-repository.git/androidrepository/FragmentsExperimentsDuelPane/app/src/main/AndroidManifest.xml
		INJECTED from /home/str/home-main-repository.git/androidrepository/FragmentsExperimentsDuelPane/app/src/main/AndroidManifest.xml
	xmlns:android
		ADDED from /home/str/home-main-repository.git/androidrepository/FragmentsExperimentsDuelPane/app/src/main/AndroidManifest.xml:2:11-69
	android:versionCode
		INJECTED from /home/str/home-main-repository.git/androidrepository/FragmentsExperimentsDuelPane/app/src/main/AndroidManifest.xml
		INJECTED from /home/str/home-main-repository.git/androidrepository/FragmentsExperimentsDuelPane/app/src/main/AndroidManifest.xml
application
ADDED from /home/str/home-main-repository.git/androidrepository/FragmentsExperimentsDuelPane/app/src/main/AndroidManifest.xml:5:5-20:19
MERGED from [com.android.support:appcompat-v7:26.0.0-alpha1] /home/str/.android/build-cache/0cfa3a2e456a9ed5f6f6ce1a09bb9c36f20419f2/output/AndroidManifest.xml:29:5-20
MERGED from [com.android.support:support-v4:26.0.0-alpha1] /home/str/.android/build-cache/8ec33f3a96f20ee1f5291a38dc90d19c73ad0c9b/output/AndroidManifest.xml:29:5-20
MERGED from [com.android.support:support-media-compat:26.0.0-alpha1] /home/str/.android/build-cache/377cd7a83b29d255c13a83b46f191184d36f11c8/output/AndroidManifest.xml:29:5-20
MERGED from [com.android.support:support-fragment:26.0.0-alpha1] /home/str/.android/build-cache/7ba0a70958c4431d65f06bb9c5d728a8c42b61e8/output/AndroidManifest.xml:29:5-20
MERGED from [com.android.support:support-core-ui:26.0.0-alpha1] /home/str/.android/build-cache/a1806ee9e7232076800260e22a70064b2c6ea7d1/output/AndroidManifest.xml:29:5-20
MERGED from [com.android.support:support-core-utils:26.0.0-alpha1] /home/str/.android/build-cache/678cd088da5e9ceb3e0881e045290c3847abf900/output/AndroidManifest.xml:29:5-20
MERGED from [com.android.support:animated-vector-drawable:26.0.0-alpha1] /home/str/.android/build-cache/33cd5944e330a7b156362405bc79915beacb68f3/output/AndroidManifest.xml:26:5-20
MERGED from [com.android.support:support-vector-drawable:26.0.0-alpha1] /home/str/.android/build-cache/2eb7b80e40a3b49bd2865d6b6538c64e98c78ab6/output/AndroidManifest.xml:26:5-20
MERGED from [com.android.support:support-compat:26.0.0-alpha1] /home/str/.android/build-cache/56d6b5ae393f24239c1c9ee23c1389c2348ba6cc/output/AndroidManifest.xml:29:5-20
MERGED from [com.android.support.constraint:constraint-layout:1.0.2] /home/str/.android/build-cache/dd7960ce9c1bed5cd6d662caf29d8b6d54cbbcf1/output/AndroidManifest.xml:9:5-20
	android:label
		ADDED from /home/str/home-main-repository.git/androidrepository/FragmentsExperimentsDuelPane/app/src/main/AndroidManifest.xml:8:9-41
	android:supportsRtl
		ADDED from /home/str/home-main-repository.git/androidrepository/FragmentsExperimentsDuelPane/app/src/main/AndroidManifest.xml:10:9-35
	android:roundIcon
		ADDED from /home/str/home-main-repository.git/androidrepository/FragmentsExperimentsDuelPane/app/src/main/AndroidManifest.xml:9:9-54
	android:allowBackup
		ADDED from /home/str/home-main-repository.git/androidrepository/FragmentsExperimentsDuelPane/app/src/main/AndroidManifest.xml:6:9-35
	android:icon
		ADDED from /home/str/home-main-repository.git/androidrepository/FragmentsExperimentsDuelPane/app/src/main/AndroidManifest.xml:7:9-43
	android:theme
		ADDED from /home/str/home-main-repository.git/androidrepository/FragmentsExperimentsDuelPane/app/src/main/AndroidManifest.xml:11:9-40
activity#com.example.android.fragmentsexperimentsduelpane.MainActivity
ADDED from /home/str/home-main-repository.git/androidrepository/FragmentsExperimentsDuelPane/app/src/main/AndroidManifest.xml:12:9-18:20
	android:name
		ADDED from /home/str/home-main-repository.git/androidrepository/FragmentsExperimentsDuelPane/app/src/main/AndroidManifest.xml:12:19-47
intent-filter#android.intent.action.MAIN+android.intent.category.LAUNCHER
ADDED from /home/str/home-main-repository.git/androidrepository/FragmentsExperimentsDuelPane/app/src/main/AndroidManifest.xml:13:13-17:29
action#android.intent.action.MAIN
ADDED from /home/str/home-main-repository.git/androidrepository/FragmentsExperimentsDuelPane/app/src/main/AndroidManifest.xml:14:17-69
	android:name
		ADDED from /home/str/home-main-repository.git/androidrepository/FragmentsExperimentsDuelPane/app/src/main/AndroidManifest.xml:14:25-66
category#android.intent.category.LAUNCHER
ADDED from /home/str/home-main-repository.git/androidrepository/FragmentsExperimentsDuelPane/app/src/main/AndroidManifest.xml:16:17-77
	android:name
		ADDED from /home/str/home-main-repository.git/androidrepository/FragmentsExperimentsDuelPane/app/src/main/AndroidManifest.xml:16:27-74
activity#com.example.android.fragmentsexperimentsduelpane.DetailActivity
ADDED from /home/str/home-main-repository.git/androidrepository/FragmentsExperimentsDuelPane/app/src/main/AndroidManifest.xml:19:9-61
	android:name
		ADDED from /home/str/home-main-repository.git/androidrepository/FragmentsExperimentsDuelPane/app/src/main/AndroidManifest.xml:19:19-49
uses-sdk
INJECTED from /home/str/home-main-repository.git/androidrepository/FragmentsExperimentsDuelPane/app/src/main/AndroidManifest.xml reason: use-sdk injection requested
MERGED from [com.android.support:appcompat-v7:26.0.0-alpha1] /home/str/.android/build-cache/0cfa3a2e456a9ed5f6f6ce1a09bb9c36f20419f2/output/AndroidManifest.xml:21:5-23:78
MERGED from [com.android.support:support-v4:26.0.0-alpha1] /home/str/.android/build-cache/8ec33f3a96f20ee1f5291a38dc90d19c73ad0c9b/output/AndroidManifest.xml:21:5-23:54
MERGED from [com.android.support:support-media-compat:26.0.0-alpha1] /home/str/.android/build-cache/377cd7a83b29d255c13a83b46f191184d36f11c8/output/AndroidManifest.xml:21:5-23:63
MERGED from [com.android.support:support-fragment:26.0.0-alpha1] /home/str/.android/build-cache/7ba0a70958c4431d65f06bb9c5d728a8c42b61e8/output/AndroidManifest.xml:21:5-23:60
MERGED from [com.android.support:support-core-ui:26.0.0-alpha1] /home/str/.android/build-cache/a1806ee9e7232076800260e22a70064b2c6ea7d1/output/AndroidManifest.xml:21:5-23:58
MERGED from [com.android.support:support-core-utils:26.0.0-alpha1] /home/str/.android/build-cache/678cd088da5e9ceb3e0881e045290c3847abf900/output/AndroidManifest.xml:21:5-23:61
MERGED from [com.android.support:animated-vector-drawable:26.0.0-alpha1] /home/str/.android/build-cache/33cd5944e330a7b156362405bc79915beacb68f3/output/AndroidManifest.xml:20:5-44
MERGED from [com.android.support:support-vector-drawable:26.0.0-alpha1] /home/str/.android/build-cache/2eb7b80e40a3b49bd2865d6b6538c64e98c78ab6/output/AndroidManifest.xml:20:5-44
MERGED from [com.android.support:support-compat:26.0.0-alpha1] /home/str/.android/build-cache/56d6b5ae393f24239c1c9ee23c1389c2348ba6cc/output/AndroidManifest.xml:21:5-23:58
MERGED from [com.android.support.constraint:constraint-layout:1.0.2] /home/str/.android/build-cache/dd7960ce9c1bed5cd6d662caf29d8b6d54cbbcf1/output/AndroidManifest.xml:5:5-7:41
	tools:overrideLibrary
		ADDED from [com.android.support:appcompat-v7:26.0.0-alpha1] /home/str/.android/build-cache/0cfa3a2e456a9ed5f6f6ce1a09bb9c36f20419f2/output/AndroidManifest.xml:23:9-75
	android:targetSdkVersion
		INJECTED from /home/str/home-main-repository.git/androidrepository/FragmentsExperimentsDuelPane/app/src/main/AndroidManifest.xml
		INJECTED from /home/str/home-main-repository.git/androidrepository/FragmentsExperimentsDuelPane/app/src/main/AndroidManifest.xml
	android:minSdkVersion
		INJECTED from /home/str/home-main-repository.git/androidrepository/FragmentsExperimentsDuelPane/app/src/main/AndroidManifest.xml
		INJECTED from /home/str/home-main-repository.git/androidrepository/FragmentsExperimentsDuelPane/app/src/main/AndroidManifest.xml
meta-data#android.support.VERSION
ADDED from [com.android.support:appcompat-v7:26.0.0-alpha1] /home/str/.android/build-cache/0cfa3a2e456a9ed5f6f6ce1a09bb9c36f20419f2/output/AndroidManifest.xml:25:5-27:41
MERGED from [com.android.support:support-v4:26.0.0-alpha1] /home/str/.android/build-cache/8ec33f3a96f20ee1f5291a38dc90d19c73ad0c9b/output/AndroidManifest.xml:25:5-27:41
MERGED from [com.android.support:support-media-compat:26.0.0-alpha1] /home/str/.android/build-cache/377cd7a83b29d255c13a83b46f191184d36f11c8/output/AndroidManifest.xml:25:5-27:41
MERGED from [com.android.support:support-fragment:26.0.0-alpha1] /home/str/.android/build-cache/7ba0a70958c4431d65f06bb9c5d728a8c42b61e8/output/AndroidManifest.xml:25:5-27:41
MERGED from [com.android.support:support-core-ui:26.0.0-alpha1] /home/str/.android/build-cache/a1806ee9e7232076800260e22a70064b2c6ea7d1/output/AndroidManifest.xml:25:5-27:41
MERGED from [com.android.support:support-core-utils:26.0.0-alpha1] /home/str/.android/build-cache/678cd088da5e9ceb3e0881e045290c3847abf900/output/AndroidManifest.xml:25:5-27:41
MERGED from [com.android.support:animated-vector-drawable:26.0.0-alpha1] /home/str/.android/build-cache/33cd5944e330a7b156362405bc79915beacb68f3/output/AndroidManifest.xml:22:5-24:41
MERGED from [com.android.support:support-vector-drawable:26.0.0-alpha1] /home/str/.android/build-cache/2eb7b80e40a3b49bd2865d6b6538c64e98c78ab6/output/AndroidManifest.xml:22:5-24:41
MERGED from [com.android.support:support-compat:26.0.0-alpha1] /home/str/.android/build-cache/56d6b5ae393f24239c1c9ee23c1389c2348ba6cc/output/AndroidManifest.xml:25:5-27:41
	android:value
		ADDED from [com.android.support:appcompat-v7:26.0.0-alpha1] /home/str/.android/build-cache/0cfa3a2e456a9ed5f6f6ce1a09bb9c36f20419f2/output/AndroidManifest.xml:27:9-38
	android:name
		ADDED from [com.android.support:appcompat-v7:26.0.0-alpha1] /home/str/.android/build-cache/0cfa3a2e456a9ed5f6f6ce1a09bb9c36f20419f2/output/AndroidManifest.xml:26:9-47
