-- Merging decision tree log ---
manifest
ADDED from /home/str/home-main-repository.git/androidrepository/CPlusTest/app/src/main/AndroidManifest.xml:1:1-11:12
INJECTED from /home/str/home-main-repository.git/androidrepository/CPlusTest/app/src/main/AndroidManifest.xml:1:1-11:12
INJECTED from /home/str/home-main-repository.git/androidrepository/CPlusTest/app/src/main/AndroidManifest.xml:1:1-11:12
INJECTED from /home/str/home-main-repository.git/androidrepository/CPlusTest/app/src/main/AndroidManifest.xml:1:1-11:12
MERGED from [com.android.support:appcompat-v7:27.1.1] /home/str/.gradle/caches/transforms-1/files-1.1/appcompat-v7-27.1.1.aar/302200a7c8cc705a106f45ae8b1f6058/AndroidManifest.xml:17:1-22:12
MERGED from [com.android.support:support-fragment:27.1.1] /home/str/.gradle/caches/transforms-1/files-1.1/support-fragment-27.1.1.aar/eaa84cc8ed9de4bd4720046adfdd8712/AndroidManifest.xml:17:1-22:12
MERGED from [com.android.support:animated-vector-drawable:27.1.1] /home/str/.gradle/caches/transforms-1/files-1.1/animated-vector-drawable-27.1.1.aar/bfd93294f3d35448816bdeeba651cd65/AndroidManifest.xml:17:1-22:12
MERGED from [com.android.support:support-core-ui:27.1.1] /home/str/.gradle/caches/transforms-1/files-1.1/support-core-ui-27.1.1.aar/c1ed3a7b4138d7101be2394d13903a89/AndroidManifest.xml:17:1-22:12
MERGED from [com.android.support:support-core-utils:27.1.1] /home/str/.gradle/caches/transforms-1/files-1.1/support-core-utils-27.1.1.aar/ae1b5c4fd517ef9f46977a38e31347bd/AndroidManifest.xml:17:1-22:12
MERGED from [com.android.support:support-vector-drawable:27.1.1] /home/str/.gradle/caches/transforms-1/files-1.1/support-vector-drawable-27.1.1.aar/a16929160597586bab6b44d60a3d7bdb/AndroidManifest.xml:17:1-22:12
MERGED from [com.android.support:support-compat:27.1.1] /home/str/.gradle/caches/transforms-1/files-1.1/support-compat-27.1.1.aar/dc1b7bf9613deda84b406c8021f91e69/AndroidManifest.xml:17:1-22:12
MERGED from [android.arch.lifecycle:livedata-core:1.1.0] /home/str/.gradle/caches/transforms-1/files-1.1/livedata-core-1.1.0.aar/0a2e3ef53af59a5f2e000f558bea346b/AndroidManifest.xml:17:1-22:12
MERGED from [android.arch.lifecycle:viewmodel:1.1.0] /home/str/.gradle/caches/transforms-1/files-1.1/viewmodel-1.1.0.aar/545a7ae1826deb1963e1a14b4add69bd/AndroidManifest.xml:17:1-22:12
MERGED from [android.arch.lifecycle:runtime:1.1.0] /home/str/.gradle/caches/transforms-1/files-1.1/runtime-1.1.0.aar/997f8fafa108d18676213a385d7c5dec/AndroidManifest.xml:17:1-22:12
MERGED from [android.arch.core:runtime:1.1.0] /home/str/.gradle/caches/transforms-1/files-1.1/runtime-1.1.0.aar/e0de4d189c0fb850aa5c546f3398b092/AndroidManifest.xml:17:1-22:12
INJECTED from /home/str/home-main-repository.git/androidrepository/CPlusTest/app/src/main/AndroidManifest.xml:1:1-11:12
INJECTED from /home/str/home-main-repository.git/androidrepository/CPlusTest/app/src/main/AndroidManifest.xml:1:1-11:12
INJECTED from /home/str/home-main-repository.git/androidrepository/CPlusTest/app/src/main/AndroidManifest.xml:1:1-11:12
	package
		ADDED from /home/str/home-main-repository.git/androidrepository/CPlusTest/app/src/main/AndroidManifest.xml:2:5-37
		INJECTED from /home/str/home-main-repository.git/androidrepository/CPlusTest/app/src/main/AndroidManifest.xml
		INJECTED from /home/str/home-main-repository.git/androidrepository/CPlusTest/app/src/main/AndroidManifest.xml
	android:versionName
		INJECTED from /home/str/home-main-repository.git/androidrepository/CPlusTest/app/src/main/AndroidManifest.xml
		ADDED from /home/str/home-main-repository.git/androidrepository/CPlusTest/app/src/main/AndroidManifest.xml:1:1-11:12
		INJECTED from /home/str/home-main-repository.git/androidrepository/CPlusTest/app/src/main/AndroidManifest.xml
	android:versionCode
		INJECTED from /home/str/home-main-repository.git/androidrepository/CPlusTest/app/src/main/AndroidManifest.xml
		ADDED from /home/str/home-main-repository.git/androidrepository/CPlusTest/app/src/main/AndroidManifest.xml:1:1-11:12
		INJECTED from /home/str/home-main-repository.git/androidrepository/CPlusTest/app/src/main/AndroidManifest.xml
	xmlns:android
		ADDED from /home/str/home-main-repository.git/androidrepository/CPlusTest/app/src/main/AndroidManifest.xml:1:11-69
application
ADDED from /home/str/home-main-repository.git/androidrepository/CPlusTest/app/src/main/AndroidManifest.xml:4:5-10:43
	android:supportsRtl
		ADDED from /home/str/home-main-repository.git/androidrepository/CPlusTest/app/src/main/AndroidManifest.xml:9:9-35
	android:label
		ADDED from /home/str/home-main-repository.git/androidrepository/CPlusTest/app/src/main/AndroidManifest.xml:7:9-41
	android:roundIcon
		ADDED from /home/str/home-main-repository.git/androidrepository/CPlusTest/app/src/main/AndroidManifest.xml:8:9-54
	android:icon
		ADDED from /home/str/home-main-repository.git/androidrepository/CPlusTest/app/src/main/AndroidManifest.xml:6:9-43
	android:allowBackup
		ADDED from /home/str/home-main-repository.git/androidrepository/CPlusTest/app/src/main/AndroidManifest.xml:5:9-35
	android:theme
		ADDED from /home/str/home-main-repository.git/androidrepository/CPlusTest/app/src/main/AndroidManifest.xml:10:9-40
uses-sdk
INJECTED from /home/str/home-main-repository.git/androidrepository/CPlusTest/app/src/main/AndroidManifest.xml reason: use-sdk injection requested
INJECTED from /home/str/home-main-repository.git/androidrepository/CPlusTest/app/src/main/AndroidManifest.xml
INJECTED from /home/str/home-main-repository.git/androidrepository/CPlusTest/app/src/main/AndroidManifest.xml
MERGED from [com.android.support:appcompat-v7:27.1.1] /home/str/.gradle/caches/transforms-1/files-1.1/appcompat-v7-27.1.1.aar/302200a7c8cc705a106f45ae8b1f6058/AndroidManifest.xml:20:5-44
MERGED from [com.android.support:appcompat-v7:27.1.1] /home/str/.gradle/caches/transforms-1/files-1.1/appcompat-v7-27.1.1.aar/302200a7c8cc705a106f45ae8b1f6058/AndroidManifest.xml:20:5-44
MERGED from [com.android.support:support-fragment:27.1.1] /home/str/.gradle/caches/transforms-1/files-1.1/support-fragment-27.1.1.aar/eaa84cc8ed9de4bd4720046adfdd8712/AndroidManifest.xml:20:5-44
MERGED from [com.android.support:support-fragment:27.1.1] /home/str/.gradle/caches/transforms-1/files-1.1/support-fragment-27.1.1.aar/eaa84cc8ed9de4bd4720046adfdd8712/AndroidManifest.xml:20:5-44
MERGED from [com.android.support:animated-vector-drawable:27.1.1] /home/str/.gradle/caches/transforms-1/files-1.1/animated-vector-drawable-27.1.1.aar/bfd93294f3d35448816bdeeba651cd65/AndroidManifest.xml:20:5-44
MERGED from [com.android.support:animated-vector-drawable:27.1.1] /home/str/.gradle/caches/transforms-1/files-1.1/animated-vector-drawable-27.1.1.aar/bfd93294f3d35448816bdeeba651cd65/AndroidManifest.xml:20:5-44
MERGED from [com.android.support:support-core-ui:27.1.1] /home/str/.gradle/caches/transforms-1/files-1.1/support-core-ui-27.1.1.aar/c1ed3a7b4138d7101be2394d13903a89/AndroidManifest.xml:20:5-44
MERGED from [com.android.support:support-core-ui:27.1.1] /home/str/.gradle/caches/transforms-1/files-1.1/support-core-ui-27.1.1.aar/c1ed3a7b4138d7101be2394d13903a89/AndroidManifest.xml:20:5-44
MERGED from [com.android.support:support-core-utils:27.1.1] /home/str/.gradle/caches/transforms-1/files-1.1/support-core-utils-27.1.1.aar/ae1b5c4fd517ef9f46977a38e31347bd/AndroidManifest.xml:20:5-44
MERGED from [com.android.support:support-core-utils:27.1.1] /home/str/.gradle/caches/transforms-1/files-1.1/support-core-utils-27.1.1.aar/ae1b5c4fd517ef9f46977a38e31347bd/AndroidManifest.xml:20:5-44
MERGED from [com.android.support:support-vector-drawable:27.1.1] /home/str/.gradle/caches/transforms-1/files-1.1/support-vector-drawable-27.1.1.aar/a16929160597586bab6b44d60a3d7bdb/AndroidManifest.xml:20:5-44
MERGED from [com.android.support:support-vector-drawable:27.1.1] /home/str/.gradle/caches/transforms-1/files-1.1/support-vector-drawable-27.1.1.aar/a16929160597586bab6b44d60a3d7bdb/AndroidManifest.xml:20:5-44
MERGED from [com.android.support:support-compat:27.1.1] /home/str/.gradle/caches/transforms-1/files-1.1/support-compat-27.1.1.aar/dc1b7bf9613deda84b406c8021f91e69/AndroidManifest.xml:20:5-44
MERGED from [com.android.support:support-compat:27.1.1] /home/str/.gradle/caches/transforms-1/files-1.1/support-compat-27.1.1.aar/dc1b7bf9613deda84b406c8021f91e69/AndroidManifest.xml:20:5-44
MERGED from [android.arch.lifecycle:livedata-core:1.1.0] /home/str/.gradle/caches/transforms-1/files-1.1/livedata-core-1.1.0.aar/0a2e3ef53af59a5f2e000f558bea346b/AndroidManifest.xml:20:5-44
MERGED from [android.arch.lifecycle:livedata-core:1.1.0] /home/str/.gradle/caches/transforms-1/files-1.1/livedata-core-1.1.0.aar/0a2e3ef53af59a5f2e000f558bea346b/AndroidManifest.xml:20:5-44
MERGED from [android.arch.lifecycle:viewmodel:1.1.0] /home/str/.gradle/caches/transforms-1/files-1.1/viewmodel-1.1.0.aar/545a7ae1826deb1963e1a14b4add69bd/AndroidManifest.xml:20:5-44
MERGED from [android.arch.lifecycle:viewmodel:1.1.0] /home/str/.gradle/caches/transforms-1/files-1.1/viewmodel-1.1.0.aar/545a7ae1826deb1963e1a14b4add69bd/AndroidManifest.xml:20:5-44
MERGED from [android.arch.lifecycle:runtime:1.1.0] /home/str/.gradle/caches/transforms-1/files-1.1/runtime-1.1.0.aar/997f8fafa108d18676213a385d7c5dec/AndroidManifest.xml:20:5-44
MERGED from [android.arch.lifecycle:runtime:1.1.0] /home/str/.gradle/caches/transforms-1/files-1.1/runtime-1.1.0.aar/997f8fafa108d18676213a385d7c5dec/AndroidManifest.xml:20:5-44
MERGED from [android.arch.core:runtime:1.1.0] /home/str/.gradle/caches/transforms-1/files-1.1/runtime-1.1.0.aar/e0de4d189c0fb850aa5c546f3398b092/AndroidManifest.xml:20:5-44
MERGED from [android.arch.core:runtime:1.1.0] /home/str/.gradle/caches/transforms-1/files-1.1/runtime-1.1.0.aar/e0de4d189c0fb850aa5c546f3398b092/AndroidManifest.xml:20:5-44
INJECTED from /home/str/home-main-repository.git/androidrepository/CPlusTest/app/src/main/AndroidManifest.xml
INJECTED from /home/str/home-main-repository.git/androidrepository/CPlusTest/app/src/main/AndroidManifest.xml
	android:targetSdkVersion
		INJECTED from /home/str/home-main-repository.git/androidrepository/CPlusTest/app/src/main/AndroidManifest.xml
		ADDED from /home/str/home-main-repository.git/androidrepository/CPlusTest/app/src/main/AndroidManifest.xml
		INJECTED from /home/str/home-main-repository.git/androidrepository/CPlusTest/app/src/main/AndroidManifest.xml
	android:minSdkVersion
		INJECTED from /home/str/home-main-repository.git/androidrepository/CPlusTest/app/src/main/AndroidManifest.xml
		ADDED from /home/str/home-main-repository.git/androidrepository/CPlusTest/app/src/main/AndroidManifest.xml
		INJECTED from /home/str/home-main-repository.git/androidrepository/CPlusTest/app/src/main/AndroidManifest.xml
